<?xml version="1.0" encoding="UTF-8" standalone="no"?>
<svg
   xmlns:dc="http://purl.org/dc/elements/1.1/"
   xmlns:cc="http://creativecommons.org/ns#"
   xmlns:rdf="http://www.w3.org/1999/02/22-rdf-syntax-ns#"
   xmlns:svg="http://www.w3.org/2000/svg"
   xmlns="http://www.w3.org/2000/svg"
   xmlns:sodipodi="http://sodipodi.sourceforge.net/DTD/sodipodi-0.dtd"
   xmlns:inkscape="http://www.inkscape.org/namespaces/inkscape"
   id="svg9894"
   version="1.1"
   fill="none"
   viewBox="0 0 20 20"
   height="20"
   width="20"
   sodipodi:docname="settingstab_instance_settings.svg"
   inkscape:version="0.92.3 (2405546, 2018-03-11)">
  <sodipodi:namedview
     pagecolor="#ffffff"
     bordercolor="#666666"
     borderopacity="1"
     objecttolerance="10"
     gridtolerance="10"
     guidetolerance="10"
     inkscape:pageopacity="0"
     inkscape:pageshadow="2"
     inkscape:window-width="1366"
     inkscape:window-height="676"
     id="namedview873"
     showgrid="false"
     inkscape:zoom="24.75"
     inkscape:cx="2.7474747"
     inkscape:cy="8.3838384"
     inkscape:window-x="0"
     inkscape:window-y="27"
     inkscape:window-maximized="1"
     inkscape:current-layer="svg9894" />
  <metadata
     id="metadata9900">
    <rdf:RDF>
      <cc:Work
         rdf:about="">
        <dc:format>image/svg+xml</dc:format>
        <dc:type
           rdf:resource="http://purl.org/dc/dcmitype/StillImage" />
        <dc:title />
      </cc:Work>
    </rdf:RDF>
  </metadata>
  <defs
     id="defs9898" />
  <path
     style="fill:#000000;stroke:#000000;stroke-width:0;stroke-miterlimit:4;stroke-dasharray:none"
     id="path9890"
     d="M10.6276 20H9.37238C8.35719 20 7.53121 19.1741 7.53121 18.1589V17.7342C7.09961 17.5963 6.68027 17.4223 6.27742 17.2138L5.97648 17.5147C5.24762 18.2445 4.08008 18.2231 3.37238 17.5145L2.48523 16.6273C1.77629 15.9192 1.7559 14.752 2.48547 14.0232L2.78617 13.7225C2.5777 13.3197 2.40367 12.9004 2.26574 12.4688H1.84113C0.825976 12.4688 0 11.6428 0 10.6276V9.37238C0 8.35719 0.825976 7.53125 1.84117 7.53125H2.26578C2.40371 7.09961 2.57773 6.68031 2.78621 6.27746L2.48527 5.97656C1.75613 5.2482 1.77625 4.08094 2.48551 3.37246L3.37273 2.48527C4.08207 1.77496 5.24934 1.75723 5.9768 2.48551L6.27746 2.78617C6.68031 2.57773 7.09965 2.40367 7.53125 2.26574V1.84113C7.53125 0.825937 8.35719 0 9.37242 0H10.6276C11.6428 0 12.4688 0.825937 12.4688 1.84113V2.26578C12.9004 2.40367 13.3197 2.57773 13.7225 2.78621L14.0235 2.48527C14.7523 1.75551 15.9199 1.77691 16.6276 2.48555L17.5147 3.37266C18.2237 4.08082 18.2441 5.24797 17.5145 5.97676L17.2138 6.27746C17.4223 6.68031 17.5963 7.09957 17.7342 7.53125H18.1588C19.174 7.53125 20 8.35719 20 9.37238V10.6276C20 11.6428 19.174 12.4688 18.1588 12.4688H17.7342C17.5963 12.9004 17.4223 13.3197 17.2138 13.7225L17.5147 14.0235C18.2439 14.7518 18.2237 15.9191 17.5145 16.6276L16.6273 17.5148C15.9179 18.2251 14.7507 18.2428 14.0232 17.5145L13.7225 17.2139C13.3197 17.4223 12.9004 17.5964 12.4688 17.7343V18.1589C12.4688 19.1741 11.6428 20 10.6276 20ZM6.47332 15.9832C7.03297 16.3142 7.63531 16.5642 8.26359 16.7264C8.52234 16.7931 8.70312 17.0265 8.70312 17.2937V18.1589C8.70312 18.5279 9.0034 18.8281 9.37242 18.8281H10.6276C10.9966 18.8281 11.2969 18.5279 11.2969 18.1589V17.2937C11.2969 17.0265 11.4777 16.7931 11.7364 16.7264C12.3647 16.5642 12.9671 16.3142 13.5267 15.9832C13.757 15.847 14.0502 15.8841 14.2393 16.0732L14.8521 16.6861C15.1164 16.9506 15.5407 16.9445 15.7984 16.6864L16.6862 15.7986C16.9433 15.5418 16.9519 15.1175 16.6864 14.8523L16.0733 14.2393C15.8842 14.0501 15.8471 13.7569 15.9833 13.5267C16.3143 12.9671 16.5643 12.3647 16.7264 11.7364C16.7932 11.4777 17.0266 11.2969 17.2938 11.2969H18.1589C18.5279 11.2969 18.8282 10.9967 18.8282 10.6277V9.37242C18.8282 9.0034 18.5279 8.70316 18.1589 8.70316H17.2938C17.0265 8.70316 16.7932 8.52238 16.7264 8.26367C16.5643 7.63535 16.3142 7.03301 15.9833 6.4734C15.8471 6.24316 15.8842 5.94996 16.0733 5.76082L16.6862 5.14797C16.9511 4.88336 16.9442 4.45914 16.6864 4.20168L15.7987 3.31398C15.5414 3.05633 15.117 3.04879 14.8524 3.31375L14.2394 3.92684C14.0502 4.11602 13.757 4.15305 13.5268 4.01688C12.9671 3.6859 12.3648 3.43586 11.7365 3.27371C11.4777 3.20695 11.297 2.97359 11.297 2.70637V1.84113C11.297 1.47211 10.9967 1.17188 10.6277 1.17188H9.37246C9.00344 1.17188 8.70316 1.47211 8.70316 1.84113V2.70629C8.70316 2.97352 8.52238 3.20688 8.26363 3.27363C7.63535 3.43578 7.03301 3.68582 6.47336 4.0168C6.24305 4.15293 5.94988 4.1159 5.76074 3.92676L5.14793 3.31391C4.88371 3.04938 4.45938 3.05551 4.20168 3.31363L3.31391 4.20137C3.0568 4.45816 3.0482 4.8825 3.31367 5.14766L3.92676 5.76074C4.1159 5.94988 4.15293 6.24309 4.0168 6.47332C3.68582 7.03293 3.43582 7.63527 3.27367 8.26359C3.20688 8.52234 2.97352 8.70309 2.70633 8.70309H1.84117C1.47215 8.70312 1.17188 9.00336 1.17188 9.37238V10.6276C1.17188 10.9966 1.47215 11.2969 1.84117 11.2969H2.70629C2.97352 11.2969 3.20684 11.4777 3.27363 11.7364C3.43578 12.3647 3.68582 12.967 4.01676 13.5266C4.15289 13.7569 4.11586 14.0501 3.92672 14.2392L3.31387 14.8521C3.04895 15.1167 3.05586 15.5409 3.31363 15.7984L4.20133 16.6861C4.45863 16.9437 4.88301 16.9513 5.14762 16.6863L5.76066 16.0732C5.90004 15.9339 6.19 15.8156 6.47332 15.9832Z" />
  <path
     style="fill:#21252f;stroke:#000000;stroke-width:0;stroke-miterlimit:4;stroke-dasharray:none;fill-opacity:0.94509804"
     id="path9892"
     mask="url(#path-1-inside-1)"
     d="m 9.3724,20 h 1.25522 c 1.01519,0 1.84117,-0.8259 1.84117,-1.8411 v -0.4247 c 0.4316,-0.1379 0.85094,-0.3119 1.25379,-0.5204 l 0.30094,0.3009 c 0.72886,0.7298 1.8964,0.7084 2.6041,-2e-4 l 0.88715,-0.8872 c 0.70894,-0.7081 0.72933,-1.8753 -2.4e-4,-2.6041 l -0.3007,-0.3007 c 0.20847,-0.4028 0.3825,-0.8221 0.52043,-1.2537 h 0.42461 C 19.174024,12.4688 20,11.6428 20,10.6276 V 9.37238 C 20,8.35719 19.174024,7.53125 18.15883,7.53125 H 17.73422 C 17.59629,7.09961 17.42227,6.68031 17.21379,6.27746 l 0.30094,-0.3009 C 18.24387,5.2482 18.22375,4.08094 17.51449,3.37246 L 16.62727,2.48527 C 15.91793,1.77496 14.75066,1.75723 14.0232,2.48551 L 13.72254,2.78617 C 13.31969,2.57773 12.90035,2.40367 12.46875,2.26574 V 1.84113 C 12.46875,0.825937 11.64281,0 10.62758,0 H 9.3724 C 8.3572,0 7.5312,0.825937 7.5312,1.84113 V 2.26578 C 7.0996,2.40367 6.6803,2.57773 6.2775,2.78621 L 5.9765,2.48527 C 5.2477,1.75551 4.0801,1.77691 3.3724,2.48555 L 2.4853,3.37266 c -0.709,0.70816 -0.7294,1.87531 2e-4,2.6041 l 0.3007,0.3007 C 2.5777,6.68031 2.4037,7.09957 2.2658,7.53125 H 1.8412 C 0.826,7.53125 0,8.35719 0,9.37238 v 1.25522 c 0,1.0152 0.826,1.8412 1.8412,1.8412 h 0.4246 c 0.1379,0.4316 0.3119,0.8509 0.5204,1.2537 l -0.3009,0.301 c -0.7292,0.7283 -0.709,1.8956 2e-4,2.6041 l 0.8872,0.8872 c 0.7094,0.7103 1.8766,0.728 2.6041,-3e-4 l 0.3007,-0.3006 c 0.4028,0.2084 0.8221,0.3825 1.2537,0.5204 v 0.4246 C 7.5312,19.1741 8.3572,20 9.3724,20 Z m 4.15428,-4.0168 c -0.55965,0.331 -1.16199,0.581 -1.79027,0.7432 -0.25875,0.0667 -0.43953,0.3001 -0.43953,0.5673 v 0.8652 c 0,0.369 -0.30028,0.6692 -0.6693,0.6692 H 9.3724 c -0.369,0 -0.6693,-0.3002 -0.6693,-0.6692 v -0.8652 c 0,-0.2672 -0.1808,-0.5006 -0.4395,-0.5673 C 7.6353,16.5642 7.0329,16.3142 6.4733,15.9832 6.243,15.847 5.9498,15.8841 5.7607,16.0732 l -0.6128,0.6129 c -0.2643,0.2645 -0.6886,0.2584 -0.9463,3e-4 L 3.3138,15.7986 C 3.0567,15.5418 3.0481,15.1175 3.3136,14.8523 l 0.6131,-0.613 C 4.1158,14.0501 4.1529,13.7569 4.0167,13.5267 3.6857,12.9671 3.4357,12.3647 3.2736,11.7364 3.2068,11.4777 2.9734,11.2969 2.7062,11.2969 H 1.8411 c -0.369,0 -0.6693,-0.3002 -0.6693,-0.6692 V 9.37242 c 0,-0.36902 0.3003,-0.66926 0.6693,-0.66926 h 0.8651 c 0.2673,0 0.5006,-0.18078 0.5674,-0.43949 C 3.4357,7.63535 3.6858,7.03301 4.0167,6.4734 4.1529,6.24316 4.1158,5.94996 3.9267,5.76082 L 3.3138,5.14797 C 3.0489,4.88336 3.0558,4.45914 3.3136,4.20168 L 4.2013,3.31398 C 4.4586,3.05633 4.883,3.04879 5.1476,3.31375 l 0.613,0.61309 C 5.9498,4.11602 6.243,4.15305 6.4732,4.01688 7.0329,3.6859 7.6352,3.43586 8.2635,3.27371 8.5223,3.20695 8.703,2.97359 8.703,2.70637 V 1.84113 c 0,-0.36902 0.3003,-0.66925 0.6693,-0.66925 h 1.25524 c 0.36902,0 0.6693,0.30023 0.6693,0.66925 v 0.86516 c 0,0.26723 0.18078,0.50059 0.43953,0.56734 0.62828,0.16215 1.23062,0.41219 1.79027,0.74317 0.23031,0.13613 0.52348,0.0991 0.71262,-0.09004 l 0.61281,-0.61285 c 0.26422,-0.26453 0.68855,-0.2584 0.94625,-2.8e-4 l 0.88777,0.88774 c 0.25711,0.25679 0.26571,0.68113 2.4e-4,0.94629 l -0.61309,0.61308 c -0.18914,0.18914 -0.22617,0.48235 -0.09004,0.71258 0.33098,0.55961 0.58098,1.16195 0.74313,1.79027 0.06679,0.25875 0.30015,0.4395 0.56734,0.4395 h 0.86516 c 0.36902,3e-5 0.66929,0.30027 0.66929,0.66929 v 1.25522 c 0,0.369 -0.30027,0.6693 -0.66929,0.6693 h -0.86512 c -0.26723,0 -0.50055,0.1808 -0.56734,0.4395 -0.16215,0.6283 -0.41219,1.2306 -0.74313,1.7902 -0.13613,0.2303 -0.0991,0.5235 0.09004,0.7126 l 0.61285,0.6129 c 0.26492,0.2646 0.25801,0.6888 2.4e-4,0.9463 l -0.8877,0.8877 c -0.2573,0.2576 -0.68168,0.2652 -0.94629,2e-4 L 14.23934,16.0732 C 14.09996,15.9339 13.81,15.8156 13.52668,15.9832 Z" />
  <g
     id="g6515"
     style="fill:#21252f;fill-opacity:0.94509804">
    <path
       d="m 10.169491,5.4789475 c 2.39949,0 4.351562,1.95211 4.351562,4.3515598 0,2.3994497 -1.952072,4.3515617 -4.351562,4.3515617 -2.39949,0 -4.35156,-1.952112 -4.35156,-4.3515617 0,-2.3994498 1.95207,-4.3515598 4.35156,-4.3515598 z m 0,7.5312495 c 1.75332,0 3.17969,-1.42641 3.17969,-3.1796897 0,-1.7532798 -1.42641,-3.1796898 -3.17969,-3.1796898 -1.75328,0 -3.17969,1.42641 -3.17969,3.1796898 0,1.7532797 1.42637,3.1796897 3.17969,3.1796897 z"
       id="path10812"
       style="fill:#21252f;fill-opacity:0.94509804" />
  </g>
</svg>
