<?xml version="1.0" encoding="UTF-8" standalone="no"?>
<svg
   xmlns:dc="http://purl.org/dc/elements/1.1/"
   xmlns:cc="http://creativecommons.org/ns#"
   xmlns:rdf="http://www.w3.org/1999/02/22-rdf-syntax-ns#"
   xmlns:svg="http://www.w3.org/2000/svg"
   xmlns="http://www.w3.org/2000/svg"
   xmlns:sodipodi="http://sodipodi.sourceforge.net/DTD/sodipodi-0.dtd"
   xmlns:inkscape="http://www.inkscape.org/namespaces/inkscape"
   id="svg995"
   version="1.1"
   viewBox="0 0 18 18"
   height="18"
   width="18"
   sodipodi:docname="settingstab_security.svg"
   inkscape:version="0.92.3 (2405546, 2018-03-11)"
   style="fill:none">
  <sodipodi:namedview
     pagecolor="#ffffff"
     bordercolor="#666666"
     borderopacity="1"
     objecttolerance="10"
     gridtolerance="10"
     guidetolerance="10"
     inkscape:pageopacity="0"
     inkscape:pageshadow="2"
     inkscape:window-width="1366"
     inkscape:window-height="676"
     id="namedview886"
     showgrid="false"
     inkscape:zoom="15.733333"
     inkscape:cx="5.9952626"
     inkscape:cy="5.1929733"
     inkscape:window-x="0"
     inkscape:window-y="27"
     inkscape:window-maximized="1"
     inkscape:current-layer="svg995" />
  <metadata
     id="metadata1001">
    <rdf:RDF>
      <cc:Work
         rdf:about="">
        <dc:format>image/svg+xml</dc:format>
        <dc:type
           rdf:resource="http://purl.org/dc/dcmitype/StillImage" />
        <dc:title></dc:title>
      </cc:Work>
    </rdf:RDF>
  </metadata>
  <defs
     id="defs999" />
  <path
     style="fill:#21252f;fill-opacity:1;stroke-width:1.03971457"
     id="path971"
     d="M 0.45798333,6.7701075 H 1.9586745 V 5.2693892 c 0,-2.8962309 3.1414864,-5.25245969 7.0031841,-5.25245969 3.8616504,0 7.0032094,2.35622879 7.0032094,5.25245969 v 1.5007183 h 1.500691 c 0.276503,0 0.500246,0.167821 0.500246,0.3751885 v 9.379463 c 0,0.827578 -0.897365,1.500645 -2.000937,1.500645 H 1.9585538 c -1.10342774,0 -2.00084229,-0.673067 -2.00084229,-1.500736 V 7.145296 c 0,-0.2073765 0.22378412,-0.3751885 0.50027182,-0.3751885 z M 14.964623,5.2693892 c 0,-2.4826032 -2.692659,-4.50211861 -6.0027644,-4.50211861 -3.310044,0 -6.0027647,2.01951541 -6.0027647,4.50211861 V 6.7701075 H 3.959515 V 5.2693892 c 0,-2.0686154 2.2442178,-3.7517774 5.0023436,-3.7517774 2.7581264,0 5.0023204,1.683198 5.0023204,3.7517774 v 1.5007183 h 1.000444 z m -10.0045662,0 V 6.7701075 H 12.963686 V 5.2693892 c 0,-1.6549518 -1.795248,-3.0014004 -4.0018274,-3.0014004 -2.2065802,0 -4.0018018,1.3464486 -4.0018018,3.0014004 z M 0.95813272,16.524668 c 0,0.413655 0.44900708,0.750322 1.00042108,0.750322 H 15.965068 c 0.551509,0 1.000446,-0.336667 1.000446,-0.750322 V 7.5204486 H 0.95813272 Z"
     inkscape:connector-curvature="0" />
  <path
     id="path956"
     d="m 10.500125,12.688953 0.315565,2.128304 c 0.01567,0.105867 -0.02978,0.212132 -0.124564,0.291656 -0.09478,0.07949 -0.23059,0.124944 -0.372737,0.124944 H 8.3174536 c -0.1421403,0 -0.2779531,-0.04544 -0.3727245,-0.124944 -0.094779,-0.07949 -0.140232,-0.18575 -0.1245645,-0.291656 L 8.1357303,12.688953 C 7.6232869,12.409398 7.3170005,11.967174 7.3170005,11.482071 c 0,-0.827651 0.8973783,-1.5007174 2.0009377,-1.5007174 1.1035728,0 2.0009428,0.6730664 2.0009428,1.5007174 0,0.485103 -0.306326,0.927327 -0.818769,1.206882 z M 9.317953,10.731729 c -0.5514968,0 -1.000445,0.336714 -1.000445,0.750342 0,0.287604 0.2178878,0.545178 0.5686302,0.672678 0.1910091,0.06962 0.302852,0.221307 0.2794054,0.379195 L 8.8763286,14.48347 H 9.7595404 L 9.4703279,12.533944 c -0.023449,-0.157933 0.08841,-0.309582 0.2794054,-0.379195 0.3507397,-0.1275 0.5686277,-0.385074 0.5686277,-0.672678 3.6e-5,-0.413628 -0.4488976,-0.750342 -1.000408,-0.750342 z"
     style="fill:#21252f;fill-opacity:1;stroke-width:1.03971457"
     inkscape:connector-curvature="0" />
</svg>
